…
`peakfit` is based on the `minpack.lm::nlsLM` function that uses the
Levenberg-Marquardt algorithm for searching the minimum value of the
square of the sum of the residuals. The search process involves starting
with an initial guess at the parameters values.

``` r
Ba455_fit %>% pluck("augmented")
#> [[1]]
#> # A tibble: 23 x 4
#>        x      y .fitted .resid
#>    <dbl>  <dbl>   <dbl>  <dbl>
#>  1  454.  9987.  10357. -370. 
#>  2  454. 10297.  10533. -236. 
#>  3  454. 10639.  10931. -292. 
#>  4  455. 11635.  11745. -111. 
#>  5  455. 13128.  13239. -111. 
#>  6  455. 15503.  15685. -182. 
#>  7  455. 18972.  19242. -270. 
#>  8  455. 23734.  23784.  -50.0
#>  9  455. 29026.  28779.  247. 
#> 10  455. 33550.  33326.  224. 
#> # ... with 13 more rows
```
…
